…
``` r
instacart |>
  count(aisle) |>
  arrange(desc(n))
```

    ## # A tibble: 134 × 2
    ##    aisle                              n
    ##    <chr>                          <int>
    ##  1 fresh vegetables              150609
    ##  2 fresh fruits                  150473
    ##  3 packaged vegetables fruits     78493
    ##  4 yogurt                         55240
    ##  5 packaged cheese                41699
    ##  6 water seltzer sparkling water  36617
    ##  7 milk                           32644
    ##  8 chips pretzels                 31269
    ##  9 soy lactosefree                26240
    ## 10 bread                          23635
    ## # ℹ 124 more rows
…
Problem 2

First, we need to use `library` and `data` to get our `brfss_smart2010`
data.

``` r
library(p8105.datasets)
data("brfss_smart2010")
brfss_smart2010
```

    ## # A tibble: 134,203 × 23
    ##     Year Locationabbr Locationdesc     Class Topic Question Response Sample_Size
    ##    <int> <chr>        <chr>            <chr> <chr> <chr>    <chr>          <int>
    ##  1  2010 AL           AL - Jefferson … Heal… Over… How is … Excelle…          94
    ##  2  2010 AL           AL - Jefferson … Heal… Over… How is … Very go…         148
    ##  3  2010 AL           AL - Jefferson … Heal… Over… How is … Good             208
    ##  4  2010 AL           AL - Jefferson … Heal… Over… How is … Fair             107
    ##  5  2010 AL           AL - Jefferson … Heal… Over… How is … Poor              45
    ##  6  2010 AL           AL - Jefferson … Heal… Fair… Health … Good or…         450
    ##  7  2010 AL           AL - Jefferson … Heal… Fair… Health … Fair or…         152
    ##  8  2010 AL           AL - Jefferson … Heal… Heal… Do you … Yes              524
    ##  9  2010 AL           AL - Jefferson … Heal… Heal… Do you … No                77
    ## 10  2010 AL           AL - Jefferson … Heal… Unde… Adults … Yes              316
    ## # ℹ 134,193 more rows
    ## # ℹ 15 more variables: Data_value <dbl>, Confidence_limit_Low <dbl>,
    ## #   Confidence_limit_High <dbl>, Display_order <int>, Data_value_unit <chr>,
    ## #   Data_value_type <chr>, Data_Value_Footnote_Symbol <chr>,
    ## #   Data_Value_Footnote <chr>, DataSource <chr>, ClassId <chr>, TopicId <chr>,
    ## #   LocationID <chr>, QuestionID <chr>, RESPID <chr>, GeoLocation <chr>
…
brfss = 
  brfss |>
  janitor :: clean_names() |>
  rename(state = locationabbr, county = locationdesc) |>
  filter(topic %in% 'Overall Health') |>
  mutate(response = fct_relevel(response, 
                                'Poor', 'Fair', 'Good', 'Very good', 'Excellent'))

brfss
```

    ## # A tibble: 10,625 × 23
    ##     year state county       class topic question response sample_size data_value
    ##    <int> <chr> <chr>        <chr> <chr> <chr>    <fct>          <int>      <dbl>
    ##  1  2010 AL    AL - Jeffer… Heal… Over… How is … Excelle…          94       18.9
    ##  2  2010 AL    AL - Jeffer… Heal… Over… How is … Very go…         148       30  
    ##  3  2010 AL    AL - Jeffer… Heal… Over… How is … Good             208       33.1
    ##  4  2010 AL    AL - Jeffer… Heal… Over… How is … Fair             107       12.5
    ##  5  2010 AL    AL - Jeffer… Heal… Over… How is … Poor              45        5.5
    ##  6  2010 AL    AL - Mobile… Heal… Over… How is … Excelle…          91       15.6
    ##  7  2010 AL    AL - Mobile… Heal… Over… How is … Very go…         177       31.3
    ##  8  2010 AL    AL - Mobile… Heal… Over… How is … Good             224       31.2
    ##  9  2010 AL    AL - Mobile… Heal… Over… How is … Fair             120       15.5
    ## 10  2010 AL    AL - Mobile… Heal… Over… How is … Poor              66        6.4
    ## # ℹ 10,615 more rows
    ## # ℹ 14 more variables: confidence_limit_low <dbl>, confidence_limit_high <dbl>,
    ## #   display_order <int>, data_value_unit <chr>, data_value_type <chr>,
    ## #   data_value_footnote_symbol <chr>, data_value_footnote <chr>,
    ## #   data_source <chr>, class_id <chr>, topic_id <chr>, location_id <chr>,
    ## #   question_id <chr>, respid <chr>, geo_location <chr>
…
    ## `summarise()` has grouped output by 'year'. You can override using the
    ## `.groups` argument.

``` r
brfss_dataset
```

    ## # A tibble: 443 × 3
    ## # Groups:   year [9]
    ##     year state mean_dv
    ##    <int> <chr>   <dbl>
    ##  1  2002 AK       27.9
    ##  2  2002 AL       18.5
    ##  3  2002 AR       24.1
    ##  4  2002 AZ       24.1
    ##  5  2002 CA       22.7
    ##  6  2002 CO       23.1
    ##  7  2002 CT       29.1
    ##  8  2002 DC       29.3
    ##  9  2002 DE       20.9
    ## 10  2002 FL       25.7
    ## # ℹ 433 more rows
…
    ## Rows: 250 Columns: 5
    ## ── Column specification ────────────────────────────────────────────────────────
    ## Delimiter: ","
    ## dbl (5): SEQN, sex, age, BMI, education
    ## 
    ## ℹ Use `spec()` to retrieve the full column specification for this data.
    ## ℹ Specify the column types or set `show_col_types = FALSE` to quiet this message.

``` r
nhanes_covar
```

    ## # A tibble: 225 × 5
    ##     seqn sex      age   bmi education             
    ##    <dbl> <fct>  <dbl> <dbl> <fct>                 
    ##  1 62161 male      22  23.3 High school equivalent
    ##  2 62164 female    44  23.2 More than high school 
    ##  3 62174 male      80  33.9 More than high school 
    ##  4 62177 male      51  20.1 High school equivalent
    ##  5 62178 male      80  28.5 High school equivalent
    ##  6 62180 male      35  27.9 More than high school 
    ##  7 62184 male      26  22.1 High school equivalent
    ##  8 62189 female    30  22.4 More than high school 
    ##  9 62199 male      57  28   More than high school 
    ## 10 62202 male      36  24.7 Less than high school 
    ## # ℹ 215 more rows
…
    ## Rows: 250 Columns: 1441
    ## ── Column specification ────────────────────────────────────────────────────────
    ## Delimiter: ","
    ## dbl (1441): SEQN, min1, min2, min3, min4, min5, min6, min7, min8, min9, min1...
    ## 
    ## ℹ Use `spec()` to retrieve the full column specification for this data.
    ## ℹ Specify the column types or set `show_col_types = FALSE` to quiet this message.

``` r
nhanes_accel
```

    ## # A tibble: 360,000 × 3
    ##     seqn Number  MIMS
    ##    <dbl> <chr>  <dbl>
    ##  1 62161 1      1.11 
    ##  2 62161 2      3.12 
    ##  3 62161 3      1.47 
    ##  4 62161 4      0.938
    ##  5 62161 5      1.60 
    ##  6 62161 6      0.145
    ##  7 62161 7      2.10 
    ##  8 62161 8      0.509
    ##  9 62161 9      1.63 
    ## 10 62161 10     1.20 
    ## # ℹ 359,990 more rows

Joined the two table together.

We joined the two table together using `left_join()` and the join key is
`by = 'seqn'`.

``` r
nhanes_joint = 
  left_join(nhanes_covar, nhanes_accel, by = 'seqn')

nhanes_joint
```

    ## # A tibble: 324,000 × 7
    ##     seqn sex     age   bmi education              Number  MIMS
    ##    <dbl> <fct> <dbl> <dbl> <fct>                  <chr>  <dbl>
    ##  1 62161 male     22  23.3 High school equivalent 1      1.11 
    ##  2 62161 male     22  23.3 High school equivalent 2      3.12 
    ##  3 62161 male     22  23.3 High school equivalent 3      1.47 
    ##  4 62161 male     22  23.3 High school equivalent 4      0.938
    ##  5 62161 male     22  23.3 High school equivalent 5      1.60 
    ##  6 62161 male     22  23.3 High school equivalent 6      0.145
    ##  7 62161 male     22  23.3 High school equivalent 7      2.10 
    ##  8 62161 male     22  23.3 High school equivalent 8      0.509
    ##  9 62161 male     22  23.3 High school equivalent 9      1.63 
    ## 10 62161 male     22  23.3 High school equivalent 10     1.20 
    ## # ℹ 323,990 more rows
…
    ## `summarise()` has grouped output by 'seqn', 'education', 'sex'. You can
    ## override using the `.groups` argument.

``` r
nhanes_clean
```

    ## # A tibble: 225 × 5
    ## # Groups:   seqn, education, sex [225]
    ##     seqn education              sex      age total_activity
    ##    <dbl> <fct>                  <fct>  <dbl>          <dbl>
    ##  1 62161 High school equivalent male      22         13194.
    ##  2 62164 More than high school  female    44         13411.
    ##  3 62174 More than high school  male      80          8579.
    ##  4 62177 High school equivalent male      51         11918.
    ##  5 62178 High school equivalent male      80          7489.
    ##  6 62180 More than high school  male      35         14205.
    ##  7 62184 High school equivalent male      26         13599.
    ##  8 62189 More than high school  female    30         18551.
    ##  9 62199 More than high school  male      57         14548.
    ## 10 62202 Less than high school  male      36         16368.
    ## # ℹ 215 more rows
…
